{
  "project_info": {
    "project_number": "584908166376",
    "firebase_url": "https://elena-covid19.firebaseio.com",
    "project_id": "elena-covid19",
    "storage_bucket": "elena-covid19.appspot.com"
  },
  "client": [
    {
      "client_info": {
        "mobilesdk_app_id": "1:584908166376:android:46f0730239aac137f9a55d",
        "android_client_info": {
          "package_name": "ch.ethz.c4dhi.covid19.elena"
        }
      },
      "oauth_client": [
        {
          "client_id": "584908166376-1tq156knbgo9im01nul558q4ghpqf4qd.apps.googleusercontent.com",
          "client_type": 3
        }
      ],
      "api_key": [
        {
          "current_key": "AIzaSyCCZl3co40kuH9_GQUOPSeU-4Cmld5Oyos"
        }
      ],
      "services": {
        "appinvite_service": {
          "other_platform_oauth_client": [
            {
              "client_id": "584908166376-1tq156knbgo9im01nul558q4ghpqf4qd.apps.googleusercontent.com",
              "client_type": 3
            }
          ]
        }
      }
    },
    {
      "client_info": {
        "mobilesdk_app_id": "1:584908166376:android:9042ff227756e581f9a55d",
        "android_client_info": {
          "package_name": "ch.ethz.c4dhi.elena.plus"
        }
      },
      "oauth_client": [
        {
          "client_id": "584908166376-1tq156knbgo9im01nul558q4ghpqf4qd.apps.googleusercontent.com",
          "client_type": 3
        }
      ],
      "api_key": [
        {
          "current_key": "AIzaSyCCZl3co40kuH9_GQUOPSeU-4Cmld5Oyos"
        }
      ],
      "services": {
        "appinvite_service": {
          "other_platform_oauth_client": [
            {
              "client_id": "584908166376-1tq156knbgo9im01nul558q4ghpqf4qd.apps.googleusercontent.com",
              "client_type": 3
            }
          ]
        }
      }
    }
  ],
  "configuration_version": "1"
}